^C:\USERS\TIMOH\SOURCE\REPOS\CPP_7TH\CPP_7\CONSOLEAPPLICATION1\CONSOLEAPPLICATION1.CPP
C:\USERS\TIMOH\SOURCE\REPOS\CPP_7TH\CPP_7\CONSOLEAPPLICATION1\DEBUG\VC142.PDB
C:\USERS\TIMOH\SOURCE\REPOS\CPP_7TH\CPP_7\CONSOLEAPPLICATION1\DEBUG\VC142.IDB
C:\USERS\TIMOH\SOURCE\REPOS\CPP_7TH\CPP_7\CONSOLEAPPLICATION1\DEBUG\CONSOLEAPPLICATION1.OBJ
